{"ast":null,"code":"import * as i0 from \"@angular/core\";\nimport * as i1 from \"./profile-intro-card/profile-intro-card/profile-intro-card.component\";\nexport class HomeComponent {\n  // newData: any;\n  constructor() {}\n  ngOnInit() {\n    // this.newData =\n    // {\n    //     \"page\": 2,\n    //     \"per_page\": 6,\n    //     \"total\": 12,\n    //     \"total_pages\": 2,\n    //     \"data\": [\n    //         {\n    //             \"id\": 7,\n    //             \"email\": \"michael.lawson@reqres.in\",\n    //             \"first_name\": \"Michael\",\n    //             \"last_name\": \"Lawson\",\n    //             \"avatar\": \"https://reqres.in/img/faces/7-image.jpg\"\n    //         },\n    //         {\n    //             \"id\": 8,\n    //             \"email\": \"lindsay.ferguson@reqres.in\",\n    //             \"first_name\": \"Lindsay\",\n    //             \"last_name\": \"Ferguson\",\n    //             \"avatar\": \"https://reqres.in/img/faces/8-image.jpg\"\n    //         },\n    //         {\n    //             \"id\": 9,\n    //             \"email\": \"tobias.funke@reqres.in\",\n    //             \"first_name\": \"Tobias\",\n    //             \"last_name\": \"Funke\",\n    //             \"avatar\": \"https://reqres.in/img/faces/9-image.jpg\"\n    //         },\n    //         {\n    //             \"id\": 10,\n    //             \"email\": \"byron.fields@reqres.in\",\n    //             \"first_name\": \"Byron\",\n    //             \"last_name\": \"Fields\",\n    //             \"avatar\": \"https://reqres.in/img/faces/10-image.jpg\"\n    //         },\n    //         {\n    //             \"id\": 11,\n    //             \"email\": \"george.edwards@reqres.in\",\n    //             \"first_name\": \"George\",\n    //             \"last_name\": \"Edwards\",\n    //             \"avatar\": \"https://reqres.in/img/faces/11-image.jpg\"\n    //         },\n    //         {\n    //             \"id\": 12,\n    //             \"email\": \"rachel.howell@reqres.in\",\n    //             \"first_name\": \"Rachel\",\n    //             \"last_name\": \"Howell\",\n    //             \"avatar\": \"https://reqres.in/img/faces/12-image.jpg\"\n    //         }\n    //     ],\n    //     \"support\": {\n    //         \"url\": \"https://reqres.in/#support-heading\",\n    //         \"text\": \"To keep ReqRes free, contributions towards server costs are appreciated!\"\n    //     }\n    // }\n  }\n}\nHomeComponent.ɵfac = function HomeComponent_Factory(t) {\n  return new (t || HomeComponent)();\n};\nHomeComponent.ɵcmp = /*@__PURE__*/i0.ɵɵdefineComponent({\n  type: HomeComponent,\n  selectors: [[\"app-home\"]],\n  decls: 1,\n  vars: 0,\n  template: function HomeComponent_Template(rf, ctx) {\n    if (rf & 1) {\n      i0.ɵɵelement(0, \"app-profile-intro-card\");\n    }\n  },\n  dependencies: [i1.ProfileIntroCardComponent],\n  styles: [\"\\n/*# sourceMappingURL=data:application/json;charset=utf-8;base64,eyJ2ZXJzaW9uIjozLCJzb3VyY2VzIjpbXSwibmFtZXMiOltdLCJtYXBwaW5ncyI6IiIsInNvdXJjZVJvb3QiOiIifQ== */\"]\n});","map":{"version":3,"mappings":";;AAOA,OAAM,MAAOA,aAAa;EAC1B;EACEC,eAAgB;EAEhBC,QAAQ;IACN;IACA;IACA;IACA;IACA;IACA;IACA;IACA;IACA;IACA;IACA;IACA;IACA;IACA;IACA;IACA;IACA;IACA;IACA;IACA;IACA;IACA;IACA;IACA;IACA;IACA;IACA;IACA;IACA;IACA;IACA;IACA;IACA;IACA;IACA;IACA;IACA;IACA;IACA;IACA;IACA;IACA;IACA;IACA;IACA;IACA;IACA;IACA;IACA;IACA;IACA;IACA;IACA;IACA;IACA;EAAA;;AA3DSF,aAAa;mBAAbA,aAAa;AAAA;AAAbA,aAAa;QAAbA,aAAa;EAAAG;EAAAC;EAAAC;EAAAC;IAAA;MCP1BC,yCAAiD","names":["HomeComponent","constructor","ngOnInit","selectors","decls","vars","template","i0"],"sourceRoot":"","sources":["D:\\P-Project\\PortFolio\\src\\app\\component\\home\\home.component.ts","D:\\P-Project\\PortFolio\\src\\app\\component\\home\\home.component.html"],"sourcesContent":["import { Component, OnInit } from '@angular/core';\n\n@Component({\n  selector: 'app-home',\n  templateUrl: './home.component.html',\n  styleUrls: ['./home.component.scss']\n})\nexport class HomeComponent implements OnInit {\n// newData: any;\n  constructor() { }\n\n  ngOnInit() {\n    // this.newData =\n    // {\n    //     \"page\": 2,\n    //     \"per_page\": 6,\n    //     \"total\": 12,\n    //     \"total_pages\": 2,\n    //     \"data\": [\n    //         {\n    //             \"id\": 7,\n    //             \"email\": \"michael.lawson@reqres.in\",\n    //             \"first_name\": \"Michael\",\n    //             \"last_name\": \"Lawson\",\n    //             \"avatar\": \"https://reqres.in/img/faces/7-image.jpg\"\n    //         },\n    //         {\n    //             \"id\": 8,\n    //             \"email\": \"lindsay.ferguson@reqres.in\",\n    //             \"first_name\": \"Lindsay\",\n    //             \"last_name\": \"Ferguson\",\n    //             \"avatar\": \"https://reqres.in/img/faces/8-image.jpg\"\n    //         },\n    //         {\n    //             \"id\": 9,\n    //             \"email\": \"tobias.funke@reqres.in\",\n    //             \"first_name\": \"Tobias\",\n    //             \"last_name\": \"Funke\",\n    //             \"avatar\": \"https://reqres.in/img/faces/9-image.jpg\"\n    //         },\n    //         {\n    //             \"id\": 10,\n    //             \"email\": \"byron.fields@reqres.in\",\n    //             \"first_name\": \"Byron\",\n    //             \"last_name\": \"Fields\",\n    //             \"avatar\": \"https://reqres.in/img/faces/10-image.jpg\"\n    //         },\n    //         {\n    //             \"id\": 11,\n    //             \"email\": \"george.edwards@reqres.in\",\n    //             \"first_name\": \"George\",\n    //             \"last_name\": \"Edwards\",\n    //             \"avatar\": \"https://reqres.in/img/faces/11-image.jpg\"\n    //         },\n    //         {\n    //             \"id\": 12,\n    //             \"email\": \"rachel.howell@reqres.in\",\n    //             \"first_name\": \"Rachel\",\n    //             \"last_name\": \"Howell\",\n    //             \"avatar\": \"https://reqres.in/img/faces/12-image.jpg\"\n    //         }\n    //     ],\n    //     \"support\": {\n    //         \"url\": \"https://reqres.in/#support-heading\",\n    //         \"text\": \"To keep ReqRes free, contributions towards server costs are appreciated!\"\n    //     }\n    // }\n  }\n\n  // getData(){\n  //   return JSON.stringify(this.newData.data[0])\n  // }\n}\n","<app-profile-intro-card></app-profile-intro-card>"]},"metadata":{},"sourceType":"module","externalDependencies":[]}